<?xml version="1.0" standalone="no" ?>
<!DOCTYPE svg PUBLIC "-//W3C//DTD SVG 1.1//EN" "http://www.w3.org/Graphics/SVG/1.1/DTD/svg11.dtd">
<svg width="1000px" height="1000px" xmlns="http://www.w3.org/2000/svg" version="1.1" >
	<polyline points="10,500 1000,500 " fill="transparent" stroke-width="1" stroke="rgb(0,0,0)" />
	<polyline points="500,990 500,10 " fill="transparent" stroke-width="1" stroke="rgb(0,0,0)" />
	<text x="500" y="510" fill="rgb(0,0,0)" font-size="10" font-family="Verdana" >0</text>
	<text x="500" y="510" fill="rgb(0,0,0)" font-size="10" font-family="Verdana" >0</text>
	<text x="490" y="450" fill="rgb(0,0,0)" font-size="10" font-family="Verdana" >1</text>
	<text x="490" y="550" fill="rgb(0,0,0)" font-size="10" font-family="Verdana" >-1</text>
	<text x="550" y="510" fill="rgb(0,0,0)" font-size="10" font-family="Verdana" >1</text>
	<text x="450" y="510" fill="rgb(0,0,0)" font-size="10" font-family="Verdana" >-1</text>
	<text x="490" y="400" fill="rgb(0,0,0)" font-size="10" font-family="Verdana" >2</text>
	<text x="490" y="600" fill="rgb(0,0,0)" font-size="10" font-family="Verdana" >-2</text>
	<text x="600" y="510" fill="rgb(0,0,0)" font-size="10" font-family="Verdana" >2</text>
	<text x="400" y="510" fill="rgb(0,0,0)" font-size="10" font-family="Verdana" >-2</text>
	<text x="490" y="350" fill="rgb(0,0,0)" font-size="10" font-family="Verdana" >3</text>
	<text x="490" y="650" fill="rgb(0,0,0)" font-size="10" font-family="Verdana" >-3</text>
	<text x="650" y="510" fill="rgb(0,0,0)" font-size="10" font-family="Verdana" >3</text>
	<text x="350" y="510" fill="rgb(0,0,0)" font-size="10" font-family="Verdana" >-3</text>
	<text x="490" y="300" fill="rgb(0,0,0)" font-size="10" font-family="Verdana" >4</text>
	<text x="490" y="700" fill="rgb(0,0,0)" font-size="10" font-family="Verdana" >-4</text>
	<text x="700" y="510" fill="rgb(0,0,0)" font-size="10" font-family="Verdana" >4</text>
	<text x="300" y="510" fill="rgb(0,0,0)" font-size="10" font-family="Verdana" >-4</text>
	<text x="490" y="250" fill="rgb(0,0,0)" font-size="10" font-family="Verdana" >5</text>
	<text x="490" y="750" fill="rgb(0,0,0)" font-size="10" font-family="Verdana" >-5</text>
	<text x="750" y="510" fill="rgb(0,0,0)" font-size="10" font-family="Verdana" >5</text>
	<text x="250" y="510" fill="rgb(0,0,0)" font-size="10" font-family="Verdana" >-5</text>
	<text x="490" y="200" fill="rgb(0,0,0)" font-size="10" font-family="Verdana" >6</text>
	<text x="490" y="800" fill="rgb(0,0,0)" font-size="10" font-family="Verdana" >-6</text>
	<text x="800" y="510" fill="rgb(0,0,0)" font-size="10" font-family="Verdana" >6</text>
	<text x="200" y="510" fill="rgb(0,0,0)" font-size="10" font-family="Verdana" >-6</text>
	<text x="490" y="150" fill="rgb(0,0,0)" font-size="10" font-family="Verdana" >7</text>
	<text x="490" y="850" fill="rgb(0,0,0)" font-size="10" font-family="Verdana" >-7</text>
	<text x="850" y="510" fill="rgb(0,0,0)" font-size="10" font-family="Verdana" >7</text>
	<text x="150" y="510" fill="rgb(0,0,0)" font-size="10" font-family="Verdana" >-7</text>
	<text x="490" y="100" fill="rgb(0,0,0)" font-size="10" font-family="Verdana" >8</text>
	<text x="490" y="900" fill="rgb(0,0,0)" font-size="10" font-family="Verdana" >-8</text>
	<text x="900" y="510" fill="rgb(0,0,0)" font-size="10" font-family="Verdana" >8</text>
	<text x="100" y="510" fill="rgb(0,0,0)" font-size="10" font-family="Verdana" >-8</text>
	<text x="490" y="50" fill="rgb(0,0,0)" font-size="10" font-family="Verdana" >9</text>
	<text x="490" y="950" fill="rgb(0,0,0)" font-size="10" font-family="Verdana" >-9</text>
	<text x="950" y="510" fill="rgb(0,0,0)" font-size="10" font-family="Verdana" >9</text>
	<text x="50" y="510" fill="rgb(0,0,0)" font-size="10" font-family="Verdana" >-9</text>
	<text x="490" y="0" fill="rgb(0,0,0)" font-size="10" font-family="Verdana" >10</text>
	<text x="490" y="1000" fill="rgb(0,0,0)" font-size="10" font-family="Verdana" >-10</text>
	<circle cx="489.197" cy="499.338" r="2.5" fill="rgb(0,0,255)" stroke-width="1" stroke="rgb(0,0,255)" />
	<circle cx="481.469" cy="526.762" r="2.5" fill="rgb(0,0,255)" stroke-width="1" stroke="rgb(0,0,255)" />
	<circle cx="506.65" cy="550.021" r="2.5" fill="rgb(0,0,255)" stroke-width="1" stroke="rgb(0,0,255)" />
	<circle cx="518.972" cy="460.151" r="2.5" fill="rgb(0,0,255)" stroke-width="1" stroke="rgb(0,0,255)" />
	<circle cx="487.09" cy="562.114" r="2.5" fill="rgb(0,0,255)" stroke-width="1" stroke="rgb(0,0,255)" />
	<circle cx="488.722" cy="517.446" r="2.5" fill="rgb(0,0,255)" stroke-width="1" stroke="rgb(0,0,255)" />
	<circle cx="512.049" cy="456.604" r="2.5" fill="rgb(0,0,255)" stroke-width="1" stroke="rgb(0,0,255)" />
	<circle cx="518.842" cy="530.593" r="2.5" fill="rgb(0,0,255)" stroke-width="1" stroke="rgb(0,0,255)" />
	<circle cx="544.365" cy="458.772" r="2.5" fill="rgb(0,0,255)" stroke-width="1" stroke="rgb(0,0,255)" />
	<circle cx="491.918" cy="503.661" r="2.5" fill="rgb(0,0,255)" stroke-width="1" stroke="rgb(0,0,255)" />
	<circle cx="526.761" cy="507.793" r="2.5" fill="rgb(0,0,255)" stroke-width="1" stroke="rgb(0,0,255)" />
	<circle cx="546.353" cy="434.972" r="2.5" fill="rgb(0,0,255)" stroke-width="1" stroke="rgb(0,0,255)" />
	<circle cx="540.638" cy="441.278" r="2.5" fill="rgb(0,0,255)" stroke-width="1" stroke="rgb(0,0,255)" />
	<circle cx="502.683" cy="510.138" r="2.5" fill="rgb(0,0,255)" stroke-width="1" stroke="rgb(0,0,255)" />
	<circle cx="497.931" cy="520.137" r="2.5" fill="rgb(0,0,255)" stroke-width="1" stroke="rgb(0,0,255)" />
	<circle cx="521.322" cy="488.56" r="2.5" fill="rgb(0,0,255)" stroke-width="1" stroke="rgb(0,0,255)" />
	<circle cx="508.914" cy="486.068" r="2.5" fill="rgb(0,0,255)" stroke-width="1" stroke="rgb(0,0,255)" />
	<circle cx="475.732" cy="560.51" r="2.5" fill="rgb(0,0,255)" stroke-width="1" stroke="rgb(0,0,255)" />
	<circle cx="495.092" cy="553.336" r="2.5" fill="rgb(0,0,255)" stroke-width="1" stroke="rgb(0,0,255)" />
	<circle cx="445.795" cy="578.276" r="2.5" fill="rgb(0,0,255)" stroke-width="1" stroke="rgb(0,0,255)" />
	<circle cx="498.453" cy="468.845" r="2.5" fill="rgb(255,0,0)" stroke-width="1" stroke="rgb(255,0,0)" />
	<circle cx="546.832" cy="485.405" r="2.5" fill="rgb(0,0,255)" stroke-width="1" stroke="rgb(0,0,255)" />
	<circle cx="525.93" cy="490.53" r="2.5" fill="rgb(0,0,255)" stroke-width="1" stroke="rgb(0,0,255)" />
	<circle cx="539.385" cy="446.502" r="2.5" fill="rgb(0,0,255)" stroke-width="1" stroke="rgb(0,0,255)" />
	<circle cx="515.223" cy="500.114" r="2.5" fill="rgb(0,0,255)" stroke-width="1" stroke="rgb(0,0,255)" />
	<circle cx="473.721" cy="528" r="2.5" fill="rgb(0,0,255)" stroke-width="1" stroke="rgb(0,0,255)" />
	<circle cx="516.513" cy="500.709" r="2.5" fill="rgb(0,0,255)" stroke-width="1" stroke="rgb(0,0,255)" />
	<circle cx="552.594" cy="456.946" r="2.5" fill="rgb(0,0,255)" stroke-width="1" stroke="rgb(0,0,255)" />
	<circle cx="496.463" cy="511.916" r="2.5" fill="rgb(0,0,255)" stroke-width="1" stroke="rgb(0,0,255)" />
	<circle cx="512.599" cy="471.321" r="2.5" fill="rgb(0,0,255)" stroke-width="1" stroke="rgb(0,0,255)" />
	<circle cx="501.706" cy="531.749" r="2.5" fill="rgb(0,0,255)" stroke-width="1" stroke="rgb(0,0,255)" />
	<circle cx="500.091" cy="519.015" r="2.5" fill="rgb(0,0,255)" stroke-width="1" stroke="rgb(0,0,255)" />
	<circle cx="523.989" cy="483.581" r="2.5" fill="rgb(0,0,255)" stroke-width="1" stroke="rgb(0,0,255)" />
	<circle cx="480.522" cy="543.106" r="2.5" fill="rgb(0,0,255)" stroke-width="1" stroke="rgb(0,0,255)" />
	<circle cx="510.1" cy="510.322" r="2.5" fill="rgb(0,0,255)" stroke-width="1" stroke="rgb(0,0,255)" />
	<circle cx="534.426" cy="431.17" r="2.5" fill="rgb(0,0,255)" stroke-width="1" stroke="rgb(0,0,255)" />
	<circle cx="483.019" cy="545.465" r="2.5" fill="rgb(0,0,255)" stroke-width="1" stroke="rgb(0,0,255)" />
	<circle cx="537.174" cy="462.988" r="2.5" fill="rgb(0,0,255)" stroke-width="1" stroke="rgb(0,0,255)" />
	<circle cx="510.055" cy="491.247" r="2.5" fill="rgb(0,0,255)" stroke-width="1" stroke="rgb(0,0,255)" />
	<circle cx="522.273" cy="507.937" r="2.5" fill="rgb(0,0,255)" stroke-width="1" stroke="rgb(0,0,255)" />
	<circle cx="457.92" cy="551.672" r="2.5" fill="rgb(0,0,255)" stroke-width="1" stroke="rgb(0,0,255)" />
	<circle cx="451.226" cy="486.478" r="2.5" fill="rgb(0,0,255)" stroke-width="1" stroke="rgb(0,0,255)" />
	<circle cx="487.359" cy="497.344" r="2.5" fill="rgb(0,0,255)" stroke-width="1" stroke="rgb(0,0,255)" />
	<circle cx="485.287" cy="504.076" r="2.5" fill="rgb(0,0,255)" stroke-width="1" stroke="rgb(0,0,255)" />
	<circle cx="500.766" cy="554.369" r="2.5" fill="rgb(0,0,255)" stroke-width="1" stroke="rgb(0,0,255)" />
	<circle cx="465.653" cy="543.161" r="2.5" fill="rgb(0,0,255)" stroke-width="1" stroke="rgb(0,0,255)" />
	<circle cx="504.102" cy="448.043" r="2.5" fill="rgb(255,0,0)" stroke-width="1" stroke="rgb(255,0,0)" />
	<circle cx="500.348" cy="492.606" r="2.5" fill="rgb(255,0,0)" stroke-width="1" stroke="rgb(255,0,0)" />
	<circle cx="499.789" cy="460.764" r="2.5" fill="rgb(255,0,0)" stroke-width="1" stroke="rgb(255,0,0)" />
	<circle cx="515.406" cy="414.36" r="2.5" fill="rgb(255,0,0)" stroke-width="1" stroke="rgb(255,0,0)" />
	<circle cx="533.227" cy="463.694" r="2.5" fill="rgb(0,0,255)" stroke-width="1" stroke="rgb(0,0,255)" />
	<circle cx="484.665" cy="495.039" r="2.5" fill="rgb(0,0,255)" stroke-width="1" stroke="rgb(0,0,255)" />
	<circle cx="527.735" cy="484.784" r="2.5" fill="rgb(0,0,255)" stroke-width="1" stroke="rgb(0,0,255)" />
	<circle cx="487.367" cy="518.435" r="2.5" fill="rgb(0,0,255)" stroke-width="1" stroke="rgb(0,0,255)" />
	<circle cx="474.435" cy="557.531" r="2.5" fill="rgb(0,0,255)" stroke-width="1" stroke="rgb(0,0,255)" />
	<circle cx="512.433" cy="488.968" r="2.5" fill="rgb(0,0,255)" stroke-width="1" stroke="rgb(0,0,255)" />
	<circle cx="517.382" cy="457.911" r="2.5" fill="rgb(0,0,255)" stroke-width="1" stroke="rgb(0,0,255)" />
	<circle cx="474.739" cy="514.932" r="2.5" fill="rgb(0,0,255)" stroke-width="1" stroke="rgb(0,0,255)" />
	<circle cx="504.194" cy="492.835" r="2.5" fill="rgb(0,0,255)" stroke-width="1" stroke="rgb(0,0,255)" />
	<circle cx="506.587" cy="468.676" r="2.5" fill="rgb(255,0,0)" stroke-width="1" stroke="rgb(255,0,0)" />
	<circle cx="497.874" cy="488.315" r="2.5" fill="rgb(255,0,0)" stroke-width="1" stroke="rgb(255,0,0)" />
	<circle cx="471.506" cy="501.448" r="2.5" fill="rgb(0,0,255)" stroke-width="1" stroke="rgb(0,0,255)" />
	<circle cx="490.152" cy="483.892" r="2.5" fill="rgb(0,0,255)" stroke-width="1" stroke="rgb(0,0,255)" />
	<circle cx="507.015" cy="509.227" r="2.5" fill="rgb(0,0,255)" stroke-width="1" stroke="rgb(0,0,255)" />
	<circle cx="477.384" cy="505.247" r="2.5" fill="rgb(0,0,255)" stroke-width="1" stroke="rgb(0,0,255)" />
	<circle cx="521.955" cy="464.514" r="2.5" fill="rgb(0,0,255)" stroke-width="1" stroke="rgb(0,0,255)" />
	<circle cx="515.052" cy="540.587" r="2.5" fill="rgb(0,0,255)" stroke-width="1" stroke="rgb(0,0,255)" />
	<circle cx="489.615" cy="481.053" r="2.5" fill="rgb(0,0,255)" stroke-width="1" stroke="rgb(0,0,255)" />
	<circle cx="469.059" cy="531.127" r="2.5" fill="rgb(0,0,255)" stroke-width="1" stroke="rgb(0,0,255)" />
	<circle cx="474.016" cy="560.126" r="2.5" fill="rgb(0,0,255)" stroke-width="1" stroke="rgb(0,0,255)" />
	<circle cx="514.988" cy="485.912" r="2.5" fill="rgb(0,0,255)" stroke-width="1" stroke="rgb(0,0,255)" />
	<circle cx="476.744" cy="529.195" r="2.5" fill="rgb(0,0,255)" stroke-width="1" stroke="rgb(0,0,255)" />
	<circle cx="483.517" cy="541.505" r="2.5" fill="rgb(0,0,255)" stroke-width="1" stroke="rgb(0,0,255)" />
	<circle cx="491.303" cy="501.337" r="2.5" fill="rgb(0,0,255)" stroke-width="1" stroke="rgb(0,0,255)" />
	<circle cx="496.208" cy="518.103" r="2.5" fill="rgb(0,0,255)" stroke-width="1" stroke="rgb(0,0,255)" />
	<circle cx="541.855" cy="405.702" r="2.5" fill="rgb(0,0,255)" stroke-width="1" stroke="rgb(0,0,255)" />
	<circle cx="520.455" cy="496.046" r="2.5" fill="rgb(0,0,255)" stroke-width="1" stroke="rgb(0,0,255)" />
	<circle cx="487.091" cy="504.819" r="2.5" fill="rgb(0,0,255)" stroke-width="1" stroke="rgb(0,0,255)" />
	<circle cx="534.113" cy="449.678" r="2.5" fill="rgb(0,0,255)" stroke-width="1" stroke="rgb(0,0,255)" />
	<circle cx="504.817" cy="495.064" r="2.5" fill="rgb(0,0,255)" stroke-width="1" stroke="rgb(0,0,255)" />
	<circle cx="509.29" cy="468.505" r="2.5" fill="rgb(0,0,255)" stroke-width="1" stroke="rgb(0,0,255)" />
	<circle cx="464.075" cy="519.433" r="2.5" fill="rgb(0,0,255)" stroke-width="1" stroke="rgb(0,0,255)" />
	<circle cx="468.473" cy="497.76" r="2.5" fill="rgb(0,0,255)" stroke-width="1" stroke="rgb(0,0,255)" />
	<circle cx="532.283" cy="439.973" r="2.5" fill="rgb(0,0,255)" stroke-width="1" stroke="rgb(0,0,255)" />
	<circle cx="481.47" cy="527.713" r="2.5" fill="rgb(0,0,255)" stroke-width="1" stroke="rgb(0,0,255)" />
	<circle cx="537.651" cy="452.481" r="2.5" fill="rgb(0,0,255)" stroke-width="1" stroke="rgb(0,0,255)" />
	<circle cx="551.417" cy="489.769" r="2.5" fill="rgb(0,0,255)" stroke-width="1" stroke="rgb(0,0,255)" />
	<circle cx="486.5" cy="546.051" r="2.5" fill="rgb(0,0,255)" stroke-width="1" stroke="rgb(0,0,255)" />
	<circle cx="496.48" cy="505.919" r="2.5" fill="rgb(0,0,255)" stroke-width="1" stroke="rgb(0,0,255)" />
	<circle cx="487.762" cy="499.075" r="2.5" fill="rgb(0,0,255)" stroke-width="1" stroke="rgb(0,0,255)" />
	<circle cx="458.677" cy="542.803" r="2.5" fill="rgb(0,0,255)" stroke-width="1" stroke="rgb(0,0,255)" />
	<circle cx="507.815" cy="466.66" r="2.5" fill="rgb(0,0,255)" stroke-width="1" stroke="rgb(0,0,255)" />
	<circle cx="524.038" cy="467.16" r="2.5" fill="rgb(0,0,255)" stroke-width="1" stroke="rgb(0,0,255)" />
	<circle cx="513.22" cy="456.23" r="2.5" fill="rgb(0,0,255)" stroke-width="1" stroke="rgb(0,0,255)" />
	<circle cx="486.824" cy="521.236" r="2.5" fill="rgb(0,0,255)" stroke-width="1" stroke="rgb(0,0,255)" />
	<circle cx="492.317" cy="529.208" r="2.5" fill="rgb(0,0,255)" stroke-width="1" stroke="rgb(0,0,255)" />
	<circle cx="436.627" cy="609.092" r="2.5" fill="rgb(0,0,255)" stroke-width="1" stroke="rgb(0,0,255)" />
	<circle cx="489.028" cy="497.731" r="2.5" fill="rgb(0,0,255)" stroke-width="1" stroke="rgb(0,0,255)" />
	<circle cx="486.736" cy="521.008" r="2.5" fill="rgb(0,0,255)" stroke-width="1" stroke="rgb(0,0,255)" />
	<circle cx="509.321" cy="503.896" r="2.5" fill="rgb(0,0,255)" stroke-width="1" stroke="rgb(0,0,255)" />
	<polyline points="10,500 1000,500 " fill="transparent" stroke-width="1" stroke="rgb(0,0,0)" />
	<polyline points="500,990 500,10 " fill="transparent" stroke-width="1" stroke="rgb(0,0,0)" />
	<text x="500" y="510" fill="rgb(0,0,0)" font-size="10" font-family="Verdana" >0</text>
	<text x="500" y="510" fill="rgb(0,0,0)" font-size="10" font-family="Verdana" >0</text>
	<text x="490" y="450" fill="rgb(0,0,0)" font-size="10" font-family="Verdana" >1</text>
	<text x="490" y="550" fill="rgb(0,0,0)" font-size="10" font-family="Verdana" >-1</text>
	<text x="550" y="510" fill="rgb(0,0,0)" font-size="10" font-family="Verdana" >1</text>
	<text x="450" y="510" fill="rgb(0,0,0)" font-size="10" font-family="Verdana" >-1</text>
	<text x="490" y="400" fill="rgb(0,0,0)" font-size="10" font-family="Verdana" >2</text>
	<text x="490" y="600" fill="rgb(0,0,0)" font-size="10" font-family="Verdana" >-2</text>
	<text x="600" y="510" fill="rgb(0,0,0)" font-size="10" font-family="Verdana" >2</text>
	<text x="400" y="510" fill="rgb(0,0,0)" font-size="10" font-family="Verdana" >-2</text>
	<text x="490" y="350" fill="rgb(0,0,0)" font-size="10" font-family="Verdana" >3</text>
	<text x="490" y="650" fill="rgb(0,0,0)" font-size="10" font-family="Verdana" >-3</text>
	<text x="650" y="510" fill="rgb(0,0,0)" font-size="10" font-family="Verdana" >3</text>
	<text x="350" y="510" fill="rgb(0,0,0)" font-size="10" font-family="Verdana" >-3</text>
	<text x="490" y="300" fill="rgb(0,0,0)" font-size="10" font-family="Verdana" >4</text>
	<text x="490" y="700" fill="rgb(0,0,0)" font-size="10" font-family="Verdana" >-4</text>
	<text x="700" y="510" fill="rgb(0,0,0)" font-size="10" font-family="Verdana" >4</text>
	<text x="300" y="510" fill="rgb(0,0,0)" font-size="10" font-family="Verdana" >-4</text>
	<text x="490" y="250" fill="rgb(0,0,0)" font-size="10" font-family="Verdana" >5</text>
	<text x="490" y="750" fill="rgb(0,0,0)" font-size="10" font-family="Verdana" >-5</text>
	<text x="750" y="510" fill="rgb(0,0,0)" font-size="10" font-family="Verdana" >5</text>
	<text x="250" y="510" fill="rgb(0,0,0)" font-size="10" font-family="Verdana" >-5</text>
	<text x="490" y="200" fill="rgb(0,0,0)" font-size="10" font-family="Verdana" >6</text>
	<text x="490" y="800" fill="rgb(0,0,0)" font-size="10" font-family="Verdana" >-6</text>
	<text x="800" y="510" fill="rgb(0,0,0)" font-size="10" font-family="Verdana" >6</text>
	<text x="200" y="510" fill="rgb(0,0,0)" font-size="10" font-family="Verdana" >-6</text>
	<text x="490" y="150" fill="rgb(0,0,0)" font-size="10" font-family="Verdana" >7</text>
	<text x="490" y="850" fill="rgb(0,0,0)" font-size="10" font-family="Verdana" >-7</text>
	<text x="850" y="510" fill="rgb(0,0,0)" font-size="10" font-family="Verdana" >7</text>
	<text x="150" y="510" fill="rgb(0,0,0)" font-size="10" font-family="Verdana" >-7</text>
	<text x="490" y="100" fill="rgb(0,0,0)" font-size="10" font-family="Verdana" >8</text>
	<text x="490" y="900" fill="rgb(0,0,0)" font-size="10" font-family="Verdana" >-8</text>
	<text x="900" y="510" fill="rgb(0,0,0)" font-size="10" font-family="Verdana" >8</text>
	<text x="100" y="510" fill="rgb(0,0,0)" font-size="10" font-family="Verdana" >-8</text>
	<text x="490" y="50" fill="rgb(0,0,0)" font-size="10" font-family="Verdana" >9</text>
	<text x="490" y="950" fill="rgb(0,0,0)" font-size="10" font-family="Verdana" >-9</text>
	<text x="950" y="510" fill="rgb(0,0,0)" font-size="10" font-family="Verdana" >9</text>
	<text x="50" y="510" fill="rgb(0,0,0)" font-size="10" font-family="Verdana" >-9</text>
	<text x="490" y="0" fill="rgb(0,0,0)" font-size="10" font-family="Verdana" >10</text>
	<text x="490" y="1000" fill="rgb(0,0,0)" font-size="10" font-family="Verdana" >-10</text>
</svg>
